module receiver-kafka

go 1.21.3

require (
	github.com/confluentinc/confluent-kafka-go v1.9.2
	github.com/stretchr/testify v1.8.4
)

require (
	github.com/davecgh/go-spew v1.1.1 // indirect
	github.com/pmezard/go-difflib v1.0.0 // indirect
	gopkg.in/yaml.v3 v3.0.1 // indirect
)
